^C:\USERS\ANDRIY\DOCUMENTS\VISUAL STUDIO 2015\PROJECTS\PMS_LAB1++\PMS_LAB1++\STDAFX.CPP
/c /ZI /nologo /W3 /WX- /sdl /Od /Oy- /D WIN32 /D _DEBUG /D _CONSOLE /D _UNICODE /D UNICODE /Gm /EHsc /RTC1 /MDd /GS /fp:precise /Zc:wchar_t /Zc:forScope /Zc:inline /Yc"stdafx.h" /Fp"DEBUG\PMS_LAB1++.PCH" /Fo"DEBUG\\" /Fd"DEBUG\VC140.PDB" /Gd /TP /analyze- C:\USERS\ANDRIY\DOCUMENTS\VISUAL STUDIO 2015\PROJECTS\PMS_LAB1++\PMS_LAB1++\STDAFX.CPP
^C:\USERS\ANDRIY\DOCUMENTS\VISUAL STUDIO 2015\PROJECTS\PMS_LAB1++\PMS_LAB1++\PMS_LAB1++.CPP
/c /ZI /nologo /W3 /WX- /sdl /Od /Oy- /D WIN32 /D _DEBUG /D _CONSOLE /D _UNICODE /D UNICODE /Gm /EHsc /RTC1 /MDd /GS /fp:precise /Zc:wchar_t /Zc:forScope /Zc:inline /Yu"stdafx.h" /Fp"DEBUG\PMS_LAB1++.PCH" /Fo"DEBUG\\" /Fd"DEBUG\VC140.PDB" /Gd /TP /analyze- C:\USERS\ANDRIY\DOCUMENTS\VISUAL STUDIO 2015\PROJECTS\PMS_LAB1++\PMS_LAB1++\PMS_LAB1++.CPP
